miniPro/simulation/qsim/miniPro.msim.vcd
$comment
	File created using the following command:
		vcd file miniPro.msim.vcd -direction
$end
$date
	Thu Nov 17 11:24:00 2016
$end
$version
	ModelSim Version 10.1d
$end
$timescale
	1ps
$end
$scope module MuxTwo_vlg_vec_tst $end
$var reg 4 ! bcd_1 [3:0] $end
$var reg 4 " bcd_2 [3:0] $end
$var reg 1 # selec $end
$var wire 1 $ result [3] $end
$var wire 1 % result [2] $end
$var wire 1 & result [1] $end
$var wire 1 ' result [0] $end
$scope module i1 $end
$var wire 1 ( gnd $end
$var wire 1 ) vcc $end
$var wire 1 * unknown $end
$var tri1 1 + devclrn $end
$var tri1 1 , devpor $end
$var tri1 1 - devoe $end
$var wire 1 . result[0]~output_o $end
$var wire 1 / result[1]~output_o $end
$var wire 1 0 result[2]~output_o $end
$var wire 1 1 result[3]~output_o $end
$var wire 1 2 bcd_2[0]~input_o $end
$var wire 1 3 bcd_1[0]~input_o $end
$var wire 1 4 selec~input_o $end
$var wire 1 5 result~0_combout $end
$var wire 1 6 bcd_2[1]~input_o $end
$var wire 1 7 bcd_1[1]~input_o $end
$var wire 1 8 result~1_combout $end
$var wire 1 9 bcd_2[2]~input_o $end
$var wire 1 : bcd_1[2]~input_o $end
$var wire 1 ; result~2_combout $end
$var wire 1 < bcd_2[3]~input_o $end
$var wire 1 = bcd_1[3]~input_o $end
$var wire 1 > result~3_combout $end
$upscope $end
$upscope $end
$enddefinitions $end
#0
$dumpvars
b0 !
b1111 "
0#
0'
0&
0%
0$
0(
1)
x*
1+
1,
1-
0.
0/
00
01
12
03
04
05
16
07
08
19
0:
0;
1<
0=
0>
$end
#150000
1#
14
1>
1;
18
15
11
10
1/
1.
1$
1%
1&
1'
#300000
0#
04
0>
0;
08
05
01
00
0/
0.
0$
0%
0&
0'
#450000
1#
14
1>
1;
18
15
11
10
1/
1.
1$
1%
1&
1'
#600000
0#
04
0>
0;
08
05
01
00
0/
0.
0$
0%
0&
0'
#750000
1#
14
1>
1;
18
15
11
10
1/
1.
1$
1%
1&
1'
#900000
0#
04
0>
0;
08
05
01
00
0/
0.
0$
0%
0&
0'
#1050000
1#
14
1>
1;
18
15
11
10
1/
1.
1$
1%
1&
1'
#1200000
0#
04
0>
0;
08
05
01
00
0/
0.
0$
0%
0&
0'
#1350000
1#
14
1>
1;
18
15
11
10
1/
1.
1$
1%
1&
1'
#1500000
0#
04
0>
0;
08
05
01
00
0/
0.
0$
0%
0&
0'
#1650000
1#
14
1>
1;
18
15
11
10
1/
1.
1$
1%
1&
1'
#1800000
0#
04
0>
0;
08
05
01
00
0/
0.
0$
0%
0&
0'
#1950000
1#
14
1>
1;
18
15
11
10
1/
1.
1$
1%
1&
1'
#2100000
0#
04
0>
0;
08
05
01
00
0/
0.
0$
0%
0&
0'
#2250000
1#
14
1>
1;
18
15
11
10
1/
1.
1$
1%
1&
1'
#2400000
0#
04
0>
0;
08
05
01
00
0/
0.
0$
0%
0&
0'
#2550000
1#
14
1>
1;
18
15
11
10
1/
1.
1$
1%
1&
1'
#2700000
0#
04
0>
0;
08
05
01
00
0/
0.
0$
0%
0&
0'
#2850000
1#
14
1>
1;
18
15
11
10
1/
1.
1$
1%
1&
1'
#3000000
0#
04
0>
0;
08
05
01
00
0/
0.
0$
0%
0&
0'
#3150000
1#
14
1>
1;
18
15
11
10
1/
1.
1$
1%
1&
1'
#3300000
0#
04
0>
0;
08
05
01
00
0/
0.
0$
0%
0&
0'
#3450000
1#
14
1>
1;
18
15
11
10
1/
1.
1$
1%
1&
1'
#3600000
0#
04
0>
0;
08
05
01
00
0/
0.
0$
0%
0&
0'
#3750000
1#
14
1>
1;
18
15
11
10
1/
1.
1$
1%
1&
1'
#3900000
0#
04
0>
0;
08
05
01
00
0/
0.
0$
0%
0&
0'
#4050000
1#
14
1>
1;
18
15
11
10
1/
1.
1$
1%
1&
1'
#4200000
0#
04
0>
0;
08
05
01
00
0/
0.
0$
0%
0&
0'
#4350000
1#
14
1>
1;
18
15
11
10
1/
1.
1$
1%
1&
1'
#4500000
0#
04
0>
0;
08
05
01
00
0/
0.
0$
0%
0&
0'
#4650000
1#
14
1>
1;
18
15
11
10
1/
1.
1$
1%
1&
1'
#4800000
0#
04
0>
0;
08
05
01
00
0/
0.
0$
0%
0&
0'
#4950000
1#
14
1>
1;
18
15
11
10
1/
1.
1$
1%
1&
1'
#5100000
0#
04
0>
0;
08
05
01
00
0/
0.
0$
0%
0&
0'
#5250000
1#
14
1>
1;
18
15
11
10
1/
1.
1$
1%
1&
1'
#5400000
0#
04
0>
0;
08
05
01
00
0/
0.
0$
0%
0&
0'
#5550000
1#
14
1>
1;
18
15
11
10
1/
1.
1$
1%
1&
1'
#5700000
0#
04
0>
0;
08
05
01
00
0/
0.
0$
0%
0&
0'
#5850000
1#
14
1>
1;
18
15
11
10
1/
1.
1$
1%
1&
1'
#6000000
0#
04
0>
0;
08
05
01
00
0/
0.
0$
0%
0&
0'
#6150000
1#
14
1>
1;
18
15
11
10
1/
1.
1$
1%
1&
1'
#6300000
0#
04
0>
0;
08
05
01
00
0/
0.
0$
0%
0&
0'
#6450000
1#
14
1>
1;
18
15
11
10
1/
1.
1$
1%
1&
1'
#6600000
0#
04
0>
0;
08
05
01
00
0/
0.
0$
0%
0&
0'
#6750000
1#
14
1>
1;
18
15
11
10
1/
1.
1$
1%
1&
1'
#6900000
0#
04
0>
0;
08
05
01
00
0/
0.
0$
0%
0&
0'
#7050000
1#
14
1>
1;
18
15
11
10
1/
1.
1$
1%
1&
1'
#7200000
0#
04
0>
0;
08
05
01
00
0/
0.
0$
0%
0&
0'
#7350000
1#
14
1>
1;
18
15
11
10
1/
1.
1$
1%
1&
1'
#7500000
0#
04
0>
0;
08
05
01
00
0/
0.
0$
0%
0&
0'
#7650000
1#
14
1>
1;
18
15
11
10
1/
1.
1$
1%
1&
1'
#7800000
0#
04
0>
0;
08
05
01
00
0/
0.
0$
0%
0&
0'
#7950000
1#
14
1>
1;
18
15
11
10
1/
1.
1$
1%
1&
1'
#8100000
0#
04
0>
0;
08
05
01
00
0/
0.
0$
0%
0&
0'
#8250000
1#
14
1>
1;
18
15
11
10
1/
1.
1$
1%
1&
1'
#8400000
0#
04
0>
0;
08
05
01
00
0/
0.
0$
0%
0&
0'
#8550000
1#
14
1>
1;
18
15
11
10
1/
1.
1$
1%
1&
1'
#8700000
0#
04
0>
0;
08
05
01
00
0/
0.
0$
0%
0&
0'
#8850000
1#
14
1>
1;
18
15
11
10
1/
1.
1$
1%
1&
1'
#9000000
0#
04
0>
0;
08
05
01
00
0/
0.
0$
0%
0&
0'
#9150000
1#
14
1>
1;
18
15
11
10
1/
1.
1$
1%
1&
1'
#9300000
0#
04
0>
0;
08
05
01
00
0/
0.
0$
0%
0&
0'
#9450000
1#
14
1>
1;
18
15
11
10
1/
1.
1$
1%
1&
1'
#9600000
0#
04
0>
0;
08
05
01
00
0/
0.
0$
0%
0&
0'
#9750000
1#
14
1>
1;
18
15
11
10
1/
1.
1$
1%
1&
1'
#9900000
0#
04
0>
0;
08
05
01
00
0/
0.
0$
0%
0&
0'
#10050000
1#
14
1>
1;
18
15
11
10
1/
1.
1$
1%
1&
1'
#10200000
0#
04
0>
0;
08
05
01
00
0/
0.
0$
0%
0&
0'
#10350000
1#
14
1>
1;
18
15
11
10
1/
1.
1$
1%
1&
1'
#10500000
0#
04
0>
0;
08
05
01
00
0/
0.
0$
0%
0&
0'
#10650000
1#
14
1>
1;
18
15
11
10
1/
1.
1$
1%
1&
1'
#10800000
0#
04
0>
0;
08
05
01
00
0/
0.
0$
0%
0&
0'
#10950000
1#
14
1>
1;
18
15
11
10
1/
1.
1$
1%
1&
1'
#11100000
0#
04
0>
0;
08
05
01
00
0/
0.
0$
0%
0&
0'
#11250000
1#
14
1>
1;
18
15
11
10
1/
1.
1$
1%
1&
1'
#11400000
0#
04
0>
0;
08
05
01
00
0/
0.
0$
0%
0&
0'
#11550000
1#
14
1>
1;
18
15
11
10
1/
1.
1$
1%
1&
1'
#11700000
0#
04
0>
0;
08
05
01
00
0/
0.
0$
0%
0&
0'
#11850000
1#
14
1>
1;
18
15
11
10
1/
1.
1$
1%
1&
1'
#12000000
0#
04
0>
0;
08
05
01
00
0/
0.
0$
0%
0&
0'
#12150000
1#
14
1>
1;
18
15
11
10
1/
1.
1$
1%
1&
1'
#12300000
0#
04
0>
0;
08
05
01
00
0/
0.
0$
0%
0&
0'
#12450000
1#
14
1>
1;
18
15
11
10
1/
1.
1$
1%
1&
1'
#12600000
0#
04
0>
0;
08
05
01
00
0/
0.
0$
0%
0&
0'
#12750000
1#
14
1>
1;
18
15
11
10
1/
1.
1$
1%
1&
1'
#12900000
0#
04
0>
0;
08
05
01
00
0/
0.
0$
0%
0&
0'
#13050000
1#
14
1>
1;
18
15
11
10
1/
1.
1$
1%
1&
1'
#13200000
0#
04
0>
0;
08
05
01
00
0/
0.
0$
0%
0&
0'
#13350000
1#
14
1>
1;
18
15
11
10
1/
1.
1$
1%
1&
1'
#13500000
0#
04
0>
0;
08
05
01
00
0/
0.
0$
0%
0&
0'
#13650000
1#
14
1>
1;
18
15
11
10
1/
1.
1$
1%
1&
1'
#13800000
0#
04
0>
0;
08
05
01
00
0/
0.
0$
0%
0&
0'
#13950000
1#
14
1>
1;
18
15
11
10
1/
1.
1$
1%
1&
1'
#14100000
0#
04
0>
0;
08
05
01
00
0/
0.
0$
0%
0&
0'
#14250000
1#
14
1>
1;
18
15
11
10
1/
1.
1$
1%
1&
1'
#14400000
0#
04
0>
0;
08
05
01
00
0/
0.
0$
0%
0&
0'
#14550000
1#
14
1>
1;
18
15
11
10
1/
1.
1$
1%
1&
1'
#14700000
0#
04
0>
0;
08
05
01
00
0/
0.
0$
0%
0&
0'
#14850000
1#
14
1>
1;
18
15
11
10
1/
1.
1$
1%
1&
1'
#15000000
0#
04
0>
0;
08
05
01
00
0/
0.
0$
0%
0&
0'
#15150000
1#
14
1>
1;
18
15
11
10
1/
1.
1$
1%
1&
1'
#15300000
0#
04
0>
0;
08
05
01
00
0/
0.
0$
0%
0&
0'
#15450000
1#
14
1>
1;
18
15
11
10
1/
1.
1$
1%
1&
1'
#15600000
0#
04
0>
0;
08
05
01
00
0/
0.
0$
0%
0&
0'
#15750000
1#
14
1>
1;
18
15
11
10
1/
1.
1$
1%
1&
1'
#15900000
0#
04
0>
0;
08
05
01
00
0/
0.
0$
0%
0&
0'
#16050000
1#
14
1>
1;
18
15
11
10
1/
1.
1$
1%
1&
1'
#16200000
0#
04
0>
0;
08
05
01
00
0/
0.
0$
0%
0&
0'
#16350000
1#
14
1>
1;
18
15
11
10
1/
1.
1$
1%
1&
1'
#16500000
0#
04
0>
0;
08
05
01
00
0/
0.
0$
0%
0&
0'
#16650000
1#
14
1>
1;
18
15
11
10
1/
1.
1$
1%
1&
1'
#16800000
0#
04
0>
0;
08
05
01
00
0/
0.
0$
0%
0&
0'
#16950000
1#
14
1>
1;
18
15
11
10
1/
1.
1$
1%
1&
1'
#17100000
0#
04
0>
0;
08
05
01
00
0/
0.
0$
0%
0&
0'
#17250000
1#
14
1>
1;
18
15
11
10
1/
1.
1$
1%
1&
1'
#17400000
0#
04
0>
0;
08
05
01
00
0/
0.
0$
0%
0&
0'
#17550000
1#
14
1>
1;
18
15
11
10
1/
1.
1$
1%
1&
1'
#17700000
0#
04
0>
0;
08
05
01
00
0/
0.
0$
0%
0&
0'
#17850000
1#
14
1>
1;
18
15
11
10
1/
1.
1$
1%
1&
1'
#18000000
0#
04
0>
0;
08
05
01
00
0/
0.
0$
0%
0&
0'
#18150000
1#
14
1>
1;
18
15
11
10
1/
1.
1$
1%
1&
1'
#18300000
0#
04
0>
0;
08
05
01
00
0/
0.
0$
0%
0&
0'
#18450000
1#
14
1>
1;
18
15
11
10
1/
1.
1$
1%
1&
1'
#18600000
0#
04
0>
0;
08
05
01
00
0/
0.
0$
0%
0&
0'
#18750000
1#
14
1>
1;
18
15
11
10
1/
1.
1$
1%
1&
1'
#18900000
0#
04
0>
0;
08
05
01
00
0/
0.
0$
0%
0&
0'
#19050000
1#
14
1>
1;
18
15
11
10
1/
1.
1$
1%
1&
1'
#19200000
0#
04
0>
0;
08
05
01
00
0/
0.
0$
0%
0&
0'
#19350000
1#
14
1>
1;
18
15
11
10
1/
1.
1$
1%
1&
1'
#19500000
0#
04
0>
0;
08
05
01
00
0/
0.
0$
0%
0&
0'
#19650000
1#
14
1>
1;
18
15
11
10
1/
1.
1$
1%
1&
1'
#19800000
0#
04
0>
0;
08
05
01
00
0/
0.
0$
0%
0&
0'
#19950000
1#
14
1>
1;
18
15
11
10
1/
1.
1$
1%
1&
1'
